…
### Comparing Gabriel Vs Friend Stock Performance


::: {.cell}
::: {.cell-output .cell-output-stdout}
```
# A tibble: 728 × 3
# Groups:   owner [2]
   owner  date        returns
   <chr>  <date>        <dbl>
 1 Friend 2022-10-03  0      
 2 Friend 2022-10-04  0.00855
 3 Friend 2022-10-05 -0.0333 
 4 Friend 2022-10-06 -0.00762
 5 Friend 2022-10-07 -0.00621
 6 Friend 2022-10-10  0.0108 
 7 Friend 2022-10-11 -0.00629
 8 Friend 2022-10-12 -0.0153 
 9 Friend 2022-10-13  0.0196 
10 Friend 2022-10-14 -0.0394 
# ℹ 718 more rows
```
…
