…
**Graph 1**

::: {.cell}
::: {.cell-output .cell-output-stdout}
```
# A tibble: 30 × 4
# Groups:   year, sex [6]
    year sex   race                           count
   <dbl> <chr> <chr>                          <int>
 1  2012 F     Asian/Pacific Islander            80
 2  2012 F     Black                            818
 3  2012 F     Hispanic                         337
 4  2012 F     Native American/Native Alaskan    39
 5  2012 F     White                           3451
 6  2012 M     Asian/Pacific Islander           373
 7  2012 M     Black                           7128
 8  2012 M     Hispanic                        2724
 9  2012 M     Native American/Native Alaskan   271
10  2012 M     White                          18342
# ℹ 20 more rows
```
…
