…
::: {.cell}

:::


## Step 1-3
Work with these datasets where each row represents an individual. Import these five datasets into R.

Downloading

::: {.cell}
::: {.cell-output .cell-output-stdout}
```
# A tibble: 7,277 × 4
   birth_year height.in height.cm study     
        <dbl>     <dbl>     <dbl> <chr>     
 1       1915        95      241. University
 2       1940        60      152. University
 3       1940        67      170. University
 4       1912        65      165. University
 5       1961        66      168. University
 6       1954        62      157. University
 7       1954        71      180. University
 8       1951        64      163. University
 9       1952        67      170. University
10       1951        69      175. University
# ℹ 7,267 more rows
```
…
