Week 4 Combining Height Files
…
      October 11, 2023

Background

The Scientific American argues that humans have been getting taller over the years. As the data scientists that we are becoming, we would like to find data that validates or refutes this concept. Our challenge is to show different male heights across the centuries.

This time, instead of looking at the mean height per country over time like we did for the previous task, we have a few files that contain heights of individuals. Each file represents a different time and/or place from which the individuals are sampled. We will combine the data from these files into one dataset to facilitate our visualization.

Step 1-3

Work with these datasets where each row represents an individual. Import these five datasets into R.

Downloading

# A tibble: 7,277 × 4
   birth_year height.in height.cm study     
        <dbl>     <dbl>     <dbl> <chr>     
 1       1915        95      241. University
 2       1940        60      152. University
 3       1940        67      170. University
 4       1912        65      165. University
 5       1961        66      168. University
 6       1954        62      157. University
 7       1954        71      180. University
 8       1951        64      163. University
 9       1952        67      170. University
10       1951        69      175. University
# ℹ 7,267 more rows
…
