Week 4 Clean and Reformat (aka tidy) Stock
…
Downloading

# A tibble: 5 × 3
  contest_period      variable value
  <chr>               <chr>    <dbl>
1 January-June1990    PROS      12.7
2 February-July1990   PROS      26.4
3 March-August1990    PROS       2.5
4 April-September1990 PROS     -20  
5 May-October1990     PROS     -37.8

#Step 2 The contestant_period column is not “tidy” we want to create a month_end and a year_end column from the information it contains.

# A tibble: 300 × 4
   month_end year_end variable value
   <chr>     <chr>    <chr>    <dbl>
 1 June      1990     PROS      12.7
 2 July      1990     PROS      26.4
 3 August    1990     PROS       2.5
 4 September 1990     PROS     -20  
 5 October   1990     PROS     -37.8
 6 November  1990     PROS     -33.3
 7 December  1990     PROS     -10.2
 8 January   1991     PROS     -20.3
 9 February  1991     PROS      38.9
10 March     1991     PROS      20.2
# ℹ 290 more rows

Step 3

Save your “tidy” data as an .rds object. (see if you can read in the saved file!

saveRDS(df1, file="taks4.rds")
readRDS("taks4.rds")

# A tibble: 300 × 4
   month_end year_end variable value
   <chr>     <chr>    <chr>    <dbl>
 1 June      1990     PROS      12.7
 2 July      1990     PROS      26.4
 3 August    1990     PROS       2.5
 4 September 1990     PROS     -20  
 5 October   1990     PROS     -37.8
 6 November  1990     PROS     -33.3
 7 December  1990     PROS     -10.2
 8 January   1991     PROS     -20.3
 9 February  1991     PROS      38.9
10 March     1991     PROS      20.2
# ℹ 290 more rows
…
