…
::: {.cell}

:::


## Step 1
Read in and tidy the Worldwide heights estimates .xlsx file. After tidying the data it should look something like this (this is just a snippet of a part of the dataset, yours will have more rows of course).

Downloading

::: {.cell}
::: {.cell-output .cell-output-stdout}
```
# A tibble: 100 × 4
   Code  country                                           height.cm year_decade
   <chr> <chr>                                                 <dbl> <chr>      
 1 56    Belgium                                                163. 1810       
 2 280   Federal Republic of Germany (until 1990)               168. 1810       
 3 250   France                                                 164. 1810       
 4 276   Germany                                                168. 1810       
 5 528   Netherlands                                            166  1810       
 6 246   Finland                                                172. 1810       
 7 372   Ireland                                                168  1810       
 8 578   Norway                                                 169. 1810       
 9 826   United Kingdom of Great Britain and Northern Ire…      170. 1810       
10 191   Croatia                                                163. 1810       
# ℹ 90 more rows
```
…
